<svg width="64" height="64" viewBox="0 0 64 64" fill="none" xmlns="http://www.w3.org/2000/svg">
<path d="M37.3332 5.33325H15.9998C14.5853 5.33325 13.2288 5.89515 12.2286 6.89535C11.2284 7.89554 10.6665 9.2521 10.6665 10.6666V53.3333C10.6665 54.7477 11.2284 56.1043 12.2286 57.1045C13.2288 58.1047 14.5853 58.6666 15.9998 58.6666H47.9998C49.4143 58.6666 50.7709 58.1047 51.7711 57.1045C52.7713 56.1043 53.3332 54.7477 53.3332 53.3333V21.3333L37.3332 5.33325Z" stroke="#DF1E36" stroke-width="4" stroke-linecap="round" stroke-linejoin="round"/>
<path d="M42.6663 45.3333H21.333" stroke="#DF1E36" stroke-width="4" stroke-linecap="round" stroke-linejoin="round"/>
<path d="M42.6663 34.6667H21.333" stroke="#DF1E36" stroke-width="4" stroke-linecap="round" stroke-linejoin="round"/>
<path d="M26.6663 24H23.9997H21.333" stroke="#DF1E36" stroke-width="4" stroke-linecap="round" stroke-linejoin="round"/>
<path d="M37.333 5.33325V21.3333H53.333" stroke="#DF1E36" stroke-width="2" stroke-linecap="round" stroke-linejoin="round"/>
</svg>
