<svg width="32" height="32" viewBox="0 0 32 32" fill="none" xmlns="http://www.w3.org/2000/svg">
<circle cx="16" cy="16" r="16" fill="#DF1E36"/>
<path d="M22.7104 11.21C22.6175 11.1163 22.5069 11.0419 22.385 10.9911C22.2632 10.9403 22.1324 10.9142 22.0004 10.9142C21.8684 10.9142 21.7377 10.9403 21.6159 10.9911C21.494 11.0419 21.3834 11.1163 21.2904 11.21L13.8404 18.67L10.7104 15.53C10.6139 15.4367 10.5 15.3634 10.3751 15.3142C10.2503 15.265 10.1169 15.2409 9.98276 15.2432C9.84858 15.2455 9.71617 15.2743 9.59309 15.3278C9.47001 15.3812 9.35868 15.4585 9.26544 15.555C9.1722 15.6515 9.09889 15.7654 9.04968 15.8903C9.00048 16.0152 8.97635 16.1485 8.97867 16.2827C8.98099 16.4168 9.00972 16.5493 9.06321 16.6723C9.1167 16.7954 9.19392 16.9067 9.29044 17L13.1304 20.84C13.2234 20.9337 13.334 21.0081 13.4559 21.0589C13.5777 21.1096 13.7084 21.1358 13.8404 21.1358C13.9725 21.1358 14.1032 21.1096 14.225 21.0589C14.3469 21.0081 14.4575 20.9337 14.5504 20.84L22.7104 12.68C22.8119 12.5863 22.893 12.4727 22.9484 12.3462C23.0038 12.2197 23.0324 12.0831 23.0324 11.945C23.0324 11.8069 23.0038 11.6703 22.9484 11.5438C22.893 11.4173 22.8119 11.3036 22.7104 11.21Z" fill="white"/>
</svg>
